[
  "👵🏼 Stay away from men",
  "👵🏼 May the force be with you",
  "👵🏼 Psychics aren't even real",
  "👵🏼 Pyschic rule number 1: Don't tell people they are going to die",
  "👵🏼 Explore oneself, to believe oneself, let us explore you",
  "👵🏼 Make sure to always feel your sweet double D's",
  "👵🏼 Looks can be deceiving",
  "👵🏼 Everything happens for a reason",
  "👵🏼 You can't keep avoiding the truth",
  "👵🏼 Don't eat food from the dumpster, unless you want to shat yourself",
  "👵🏼 Life is about more then money",
  "👵🏼 You're going to become a mindless drone because of a cheese pie",
  "👵🏼 Believe in yourself, like Baba believes in you",
  "👵🏼 Cheese pie",
  "👵🏼 Trust your powers...",
  "👵🏼 Sometimes all it takes is a little nudge to realize your full potential",
  "👵🏼 Don't let others tell you to wake up, wake yourself up!",
  "👵🏼 Allow me to help you find the truth you seek",
  "👵🏼 Your truth is a constant forest flowing between you and me",
  "👵🏼 Moeto letačko vozilo e polno so jaguli",
  "👵🏼 Baba appears to be gone....is that burning cheese pie?!",
  "👵🏼 More than a mouthful is waste anyways.",
  "👵🏼 Nothing's non-fat. That's why the world's gonna explode one day."
]
