[
  {"title":"A City of Strangers", "author":"allthisandheaven_too", "url":"https://archiveofourown.org/works/4426235"},
  {"title":"A Different Approach", "author":"makeme123", "url":"https://archiveofourown.org/works/3872794"},
  {"title":"Beating like a Hammer", "author":"uncreativename", "url":"https://archiveofourown.org/works/6234487"},
  {"title":"Beautiful Stranger", "author":"daisyfalls", "url":"https://archiveofourown.org/works/4378151"},
  {"title":"Call It What You Want", "author":"stillcookiedough", "url":"https://archiveofourown.org/works/12880701"},
  {"title":"Chasing Ghosts", "author":"LivingThroughtheNight", "url":"https://archiveofourown.org/works/5452904"},
  {"title":"Coffee Cups and Lipstick", "author":"marissalyn14", "url":"https://archiveofourown.org/works/5560249"},
  {"title":"Cookies and Kittens", "author":"KittyKarnstein96", "url":"https://archiveofourown.org/works/3414128"},
  {"title":"Elevators and Blackouts", "author":"makeme123", "url":"https://archiveofourown.org/works/3738733"},
  {"title":"Exposure", "author":"makeme123", "url":"https://archiveofourown.org/works/4988830"},
  {"title":"Fire is always ready to burn the hand it warms.", "author":"KittyKarnstein96", "url":"https://archiveofourown.org/works/4262373"},
  {"title":"Guardian Angel", "author":"waitwhathuh", "url":"https://archiveofourown.org/works/5525474"},
  {"title":"Holding onto your Heart", "author":"standoutinacrowd", "url":"https://archiveofourown.org/works/8219009"},
  {"title":"I wanna be somebody (someone to you)", "author":"JG Firefly", "url":"https://archiveofourown.org/works/14150148"},
  {"title":"I'll Keep You Safe if You Keep Me Wild", "author":"TheRegalist", "url":"https://archiveofourown.org/works/3487961"},
  {"title":"Let's Start Right Now", "author":"alterocentrist", "url":"https://archiveofourown.org/works/8260730"},
  {"title":"Miscommunication", "author":"mad2thebone", "url":"https://archiveofourown.org/works/5104562"},
  {"title":"Mixed Up", "author":"Frea_O", "url":"https://archiveofourown.org/works/5334830"},
  {"title":"Not with Haste", "author":"antisocialgod", "url":"https://archiveofourown.org/works/5035855"},
  {"title":"Of Carburetors and Creampuffs", "author":"TheSpaminator", "url":"https://archiveofourown.org/works/3419990"},
  {"title":"Scraped my Knee Falling for You", "author":"standardusername", "url":"https://archiveofourown.org/works/8535328"},
  {"title":"That Night in New York", "author":"Angelsgirl17", "url":"https://archiveofourown.org/works/6840652"},
  {"title":"The Mediator", "author":"standardusername", "url":"https://archiveofourown.org/works/10458720"},
  {"title":"The Minister's Daughter", "author":"This_Is_A_Good_Sign", "url":"https://archiveofourown.org/works/4448231"},
  {"title":"The Road to Home", "author":"makeme123", "url":"https://archiveofourown.org/works/6263371"},
  {"title":"The Sound of Your Voice", "author":"Trufreak89", "url":"https://archiveofourown.org/works/3866026"},
  {"title":"The Trades We Choose", "author":"carmillasleatherpants (courtneyamelle)", "url":"https://archiveofourown.org/works/3315281"},
  {"title":"This Distant Image of our Tiny World", "author":"churchofyourcurves", "url":"https://archiveofourown.org/works/5136398"},
  {"title":"Touched by Stars", "author":"carmillasleatherpants (courtneyamelle)", "url":"https://archiveofourown.org/works/4315473"},
  {"title":"Vindicated", "author":"blak_cat", "url":"https://archiveofourown.org/works/3752719"},
  {"title":"What's Mine is Yours...Always", "author":"onlythebestfandoms", "url":"https://archiveofourown.org/works/14051313"},
  {"title":"White Blank Page", "author":"antisocialgod", "url":"https://archiveofourown.org/works/3526574"},
  {"title":"A Walk to Remember", "author":"myapatheticnature", "url":"https://archiveofourown.org/works/7676959"},
  {"title":"Inbox", "author":"alterocentrist", "url":"https://archiveofourown.org/works/4226337"},
  {"title":"It Only Takes a Taste", "author":"martxoa", "url":"https://archiveofourown.org/works/7287730"},
  {"title":"Laura Versus the Intersect", "author":"afoolwhodreams", "url":"https://archiveofourown.org/works/4227705"},
  {"title":"The Road Home", "author":"tallgaydanni", "url":"https://archiveofourown.org/works/16937019"},
  {"title":"The Time Traveler's Wife", "author":"fangs_for_the_memories", "url":"https://archiveofourown.org/works/17147822"},
  {"title":"Best Friend's Girl (Ask for ePub in Discord)", "author":"leialovesfaith", "url":"https://archiveofourown.org/works/5807602"},
  {"title":"Common Ground", "author":"StormIsland", "url":"https://archiveofourown.org/works/10316168"},
  {"title":"Going Home", "author":"ReedBallon", "url":"https://archiveofourown.org/works/8268947"},
  {"title":"Reconstruction", "author":"BringingGeekyBack", "url":"https://archiveofourown.org/works/7759327"},
  {"title":"The Ghost of Lake Hailstorm", "author":"Puntrest", "url":"https://archiveofourown.org/works/7784350"},
  {"title":"What the Water Gave Us", "author":"miss_maraudeur", "url":"https://archiveofourown.org/works/3257825"},
  {"title":"Your Mom Called You Left Your Game at Home", "author":"catmilla", "url":"https://archiveofourown.org/works/4100731"},
  {"title":"All or Nothing", "author":"waitwhathuh", "url":"https://archiveofourown.org/works/9475325"},
  {"title":"Back to Back", "author":"Heylittleyahtzee (HeyYahtzee)", "url":"https://archiveofourown.org/works/4060750"},
  {"title":"I'm a Moth to Your Flame (And My Wings are Burning)", "author":"chasingredballoons", "url":"https://archiveofourown.org/works/3368003"},
  {"title":"It's Going Down", "author":"StormIsland", "url":"https://archiveofourown.org/works/13281990"},
  {"title":"Love like Fools", "author":"standardusername", "url":"https://archiveofourown.org/works/13245327"},
  {"title":"Marriage of Convenience", "author":"RunWithWolves", "url":"https://archiveofourown.org/works/4016743"},
  {"title":"Meet Me Halfway to Your Heart", "author":"ariadnerue", "url":"https://archiveofourown.org/works/4862975"},
  {"title":"Piss Off Your Parents Date Me to Scare Them", "author":"crumbleduppieceofpaper", "url":"https://archiveofourown.org/works/6269797"},
  {"title":"Quid Pro Quo", "author":"mad2thebone", "url":"https://archiveofourown.org/works/6136101"},
  {"title":"Undeniable Chemistry", "author":"peptobismolbird & standoutinacrowd", "url":"https://archiveofourown.org/works/7797832"},
  {"title":"We'll See", "author":"ReedBallon", "url":"https://archiveofourown.org/works/7806496"},
  {"title":"Somewhere I have Never Travelled Gladly Beyond", "author":"churchofyourcurves", "url":"https://archiveofourown.org/works/3515432"},
  {"title":"The Triwizard Tournament", "author":"ofarrowsandspacemen", "url":"https://archiveofourown.org/works/5421080"},
  {"title":"This Magic Works", "author":"standardusername", "url":"https://archiveofourown.org/works/8636305"},
  {"title":"Silas Girls Academy", "author":"ofarrowsandspacemen", "url":"https://archiveofourown.org/works/16302881"},
  {"title":"Right From the Start", "author":"ofarrowsandspacemen", "url":"https://archiveofourown.org/works/5348567"},
  {"title":"Where Your Treasure is There Will Your Heart be Also", "author":"churchofyourcurves", "url":"https://archiveofourown.org/works/3112970"},
  {"title":"A Connotation of Infinity", "author":"mermaiddrunk", "url":"https://archiveofourown.org/works/2762318"},
  {"title":"Gravity", "author":"Duckiesurprise", "url":"https://archiveofourown.org/works/2621360"},
  {"title":"Hot Cocoa To-Go", "author":"ofarrowsandspacemen", "url":"https://archiveofourown.org/works/5128901"},
  {"title":"Lock & Key", "author":"waitwhathuh", "url":"https://archiveofourown.org/works/5840035"},
  {"title":"On our Last Leg", "author":"waitwhathuh", "url":"https://archiveofourown.org/works/8434864"},
  {"title":"Teach Me to Play", "author":"RunWithWolves", "url":"https://archiveofourown.org/works/4069897"},
  {"title":"The Usual", "author":"ofarrowsandspacemen", "url":"https://archiveofourown.org/works/7119178"},
  {"title":"To Build a Home", "author":"lordvoldyfarts", "url":"https://archiveofourown.org/works/2558783"},
  {"title":"We Chose Each Other", "author":"RunWithWolves", "url":"https://archiveofourown.org/works/8343028"},
  {"title":"You are a Cliffhanger Ending; I'm the One that Doesn't Know Anything", "author":"uncreativename", "url":"https://archiveofourown.org/works/3879046"},
  {"title":"Absolution", "author":"lordvoldyfarts", "url":"https://archiveofourown.org/works/2719508"},
  {"title":"Don't You Want to Claim my Body like a Vandal?", "author":"chasingredballoons", "url":"https://archiveofourown.org/works/2871731"},
  {"title":"I am a Fire You're Gasoline", "author":"chasingredballoons", "url":"https://archiveofourown.org/works/4463534"},
  {"title":"Maybe We Can Learn to Share", "author":"counthoelaf", "url":"https://archiveofourown.org/works/3826759"},
  {"title":"No Space Among the Clouds", "author":"chasingredballoons", "url":"https://archiveofourown.org/works/4049449"},
  {"title":"Not so Gentle", "author":"CalledFor", "url":"https://archiveofourown.org/works/2653613"},
  {"title":"NSFW Tumblr Prompts", "author":"Timballisto", "url":"https://archiveofourown.org/works/2628851"},
  {"title":"Silence Looks Good on You", "author":"BADAAX", "url":"https://archiveofourown.org/works/4740662"},
  {"title":"Strangers", "author":"do_hickey", "url":"https://archiveofourown.org/works/3691662"},
  {"title":"The Black Cat", "author":"marissalyn14", "url":"https://archiveofourown.org/works/3189971"},
  {"title":"The Curator", "author":"ofarrowsandspacemen", "url":"https://archiveofourown.org/works/12634998"},
  {"title":"The Vampire Hotel", "author":"Jenocide", "url":"https://archiveofourown.org/works/5455802"},
  {"title":"The Way She Looks", "author":"Kendarrr", "url":"https://archiveofourown.org/works/2624249"},
  {"title":"Styrian Cold Fronts", "author":"blv", "url":"https://archiveofourown.org/works/5054239"},
  {"title":"Plastic Stars", "author":"Jenocide", "url":"https://archiveofourown.org/works/8333509"},
  {"title":"Red Giant", "author":"Jenocide", "url":"https://archiveofourown.org/works/9624872"},
  {"title":"Orion's Belt", "author":"Jenocide", "url":"https://archiveofourown.org/works/12266316"},
  {"title":"Chain my Name", "author":"yams", "url":"https://archiveofourown.org/works/4495596"},
  {"title":"Yours", "author":"iMightBe", "url":"https://archiveofourown.org/works/14236074"},
  {"title":"Posterity", "author":"pterosounds", "url":"https://archiveofourown.org/works/3383489"},
  {"title":"Pandemic", "author":"Puntrest", "url":"https://archiveofourown.org/works/3245279"},
  {"title":"The Great Iron Sky", "author":"tinyace & untiltheveryend", "url":"https://archiveofourown.org/works/3176514"},
    {"title":"Baby, Please Come Home", "author":"onlythebestfandoms", "url":"https://archiveofourown.org/works/17096612"},
    {"title":"Wanted:Girlfriend", "author":"inlovewiththesunset (deeperinmyhead)", "url":"https://archiveofourown.org/works/3903718"},
  {"title":"Takeoffs and Landings", "author":"Alpined", "url":"https://archiveofourown.org/works/4772600"},
    {"title":"The kind of people you meet on airplanes", "author":"alterocentrist", "url":"https://archiveofourown.org/works/2817635"},
    {"title":"Bite Marks", "author":"Ggunsailor", "url":"https://archiveofourown.org/works/16959030"},
    {"title":"From Demons to Daylight", "author":"hurtleturtle", "url":"https://archiveofourown.org/works/4301067"},
    {"title":"Kryptonite", "author":"blak_cat", "url":"https://archiveofourown.org/works/3211052"},
      {"title":"we two have run about the hills, and pulled the daisies fine", "author":"ofarrowsandspacemen", "url":"https://archiveofourown.org/works/13277982"},
      {"title":"A Hint of Colour", "author":"RunWithWolves", "url":"https://archiveofourown.org/works/12662028#main"},
      {"title":"I Can't Keep Calm I'm a Softball Mom", "author":"catmilla","url":"https://archiveofourown.org/works/17368694"},
      {"title":"Bed Head", "author":"Sheslump", "url":"https://archiveofourown.org/works/16606823/chapters/38923082"},
      {"title":"Have I Ever Told You How Good It Feels To Hold You", "author":"onlythebestfandoms", "url":"https://archiveofourown.org/works/18201374"},
      {"title":"Quidditch away with me","author":"CosimaHellahaus", "url":"https://archiveofourown.org/works/2791385"},
      {"title":"I hope that you catch me (cause I'm already falling)", "author":"SJAandDWfan", "url":"https://archiveofourown.org/works/2862002/chapters/6414308#workskin"},
      {"title":"seekers are not always the most focused of quidditch players", "author":"BatWingsandBlackCats", "url":"https://archiveofourown.org/works/5712364"},
      {"title":"The Courage of Stars", "author":"JG Firefly (Phoenix_Call)", "url":"https://archiveofourown.org/works/10464135/chapters/23090310"},
      {"title":"The Ultimate Coffee Shop AU", "author":"RunWithWolves", "url":"https://archiveofourown.org/works/12598040"},
      {"title":"But If You Let Me Be Your Skyline I'll Let You Be The Wave", "author":"onlythebestfandoms", "url":"https://archiveofourown.org/works/16088375"},
      {"title":"We met because my ex is awful", "author":"snappy_nincompoop", "url":"https://archiveofourown.org/works/5287376"},
      {"title":"Break the Ceiling", "author":"uncreativename", "url":"https://archiveofourown.org/works/12703749"},
      {"title":"Coffee Cupcake Crush", "author":"RunWithWolves", "url":"https://archiveofourown.org/works/8106280"},
        {"title":"in the bleak midwinter", "author":"BatWingsandBlackCats", "url":"https://archiveofourown.org/works/13183356"},
        {"title":"Le Smut", "author":"askboxangel", "url":"https://archiveofourown.org/works/4034557"},
        {"title":"The Start", "author":"green_zombie", "url":"https://archiveofourown.org/works/7221544"},
        {"title":"Loving you's a bloodsport", "author":"justgalpals", "url":"https://archiveofourown.org/works/5002351"},
        {"title":"Into Oblivion", "author":"DreadPirateBrown", "url":"https://archiveofourown.org/works/13799511"},
        {"title":"Heartlines", "author":"Alfer", "url":"https://archiveofourown.org/works/8254958"},
        {"title":"Mile High Club", "author":"negodamnlis", "url":"https://archiveofourown.org/works/3876577"},
        {"title":"just need a little of your time", "author":"CalledFor", "url":"https://archiveofourown.org/works/8052682"},
        {"title":"Someday When You Leave Me, I'll Bet These Memories Follow You Around", "author":"susieboo", "url":"https://archiveofourown.org/works/5094128#main"},
        {"title":"(of all persisting stars)", "author":"Care & mermaiddrunk", "url":"https://archiveofourown.org/works/4181670/chapters/9443226"},
        {"title":"Truth of Dare", "author":"WillowKovalo", "url":"https://archiveofourown.org/works/8844478"},
        {"title":"Poultrygeist", "author":"tophsmash", "url":"https://archiveofourown.org/works/8112343"},
        {"title":"Christmas at Candy Cane Corner", "author":"ukulelekatie", "url":"https://archiveofourown.org/works/17123693"},
      {"title":"Nefarious Elf", "author":"Jenocide", "url":"https://archiveofourown.org/works/13136904"},
      {"title":"have a merry little christmas", "author":"poketa", "url":"https://archiveofourown.org/works/13154760"},
      {"title":"till she appeared (and the soul felt its worth)", "author":"natcsharomanova", "url":"https://archiveofourown.org/works/13133748"},
      {"title":"White Christmas", "author":"ghostmachine", "url":"https://archiveofourown.org/works/12847323/chapters/29337258"},
      {"title":"Christmas Trains", "author":"RunWithWolves", "url":"https://archiveofourown.org/works/5553449"},
      {"title":"I Will Catch You If You Fall", "author":"Shamrock3185", "url":"https://archiveofourown.org/works/11371710#main"},
      {"title":"Frequent Flyer", "author":"ofarrowsandspacemen", "url":"https://archiveofourown.org/works/12097749"},
          {"title":"Darkness There, and Nothing More", "author":"Cap2theDark", "url":"https://archiveofourown.org/series/1169942"},
{"title":"Fate is Kind", "author":"Hollstein1698", "url":"https://archiveofourown.org/works/3789670"},
{"title":"Kept", "author":"bodylikeabattleaxe", "url":"https://archiveofourown.org/works/2669525"},
{"title":"(Un)familiar Territory", "author":"lizardwriter", "url":"https://archiveofourown.org/works/5031646"},
{"title":"Musa Procax", "author":"fatdumplings", "url":"https://archiveofourown.org/works/9583673"},
{"title":"Embracing Accusation", "author":"2edge4u", "url":"https://archiveofourown.org/works/6560848"},
{"title":"What We Owe To Each Other", "author":"rainbowflavored_fiction", "url":"https://archiveofourown.org/works/15962639"},
{"title":"Decisive Moments", "author":"alterocentrist", "url":"https://archiveofourown.org/works/13069767"},
{"title":"Monsters", "author":"andthatisterrible", "url":"https://archiveofourown.org/works/5853712"},
{"title":"I hate Santa, but I like you", "author":"Silver85", "url":"https://archiveofourown.org/works/5526746"},
{"title":"Cookies, Cupcakes, and Hockey Captains", "author":"RunWithWolves", "url":"https://archiveofourown.org/works/12092073"},
{"title":"A Classic High School Love Story", "author":"RunWithWolves", "url":"https://archiveofourown.org/works/12471608"},
{"title":"Four Walls (I don't stand a chance)", "author":"kitty_shcherbatskaya", "url":"https://archiveofourown.org/works/7842493"},
{"title":"Tap your way into my heart", "author":"Silver85", "url":"https://archiveofourown.org/works/4053649"},
{"title":"Yesterday", "author":"daisyfalls", "url":"https://archiveofourown.org/works/3600072"},
{"title":"I'm Not Afraid To Look A Girl Right In The Eye", "author":"onlythebestfandoms", "url":"https://archiveofourown.org/works/15865281"},
{"title":"The Journal", "author":"Jenocide", "url":"https://archiveofourown.org/works/12473736"},
{"title":"Follow in my footsteps (step by step)", "author":"From_Dusk_to_Dawn", "url":"https://archiveofourown.org/works/4961497"},
  {"title":"Stupid, sexy, vampire", "author":"ChocDog", "url":"https://archiveofourown.org/works/14183391#main"},
  {"title":"Four Walls (I don't stand a chance)", "author":"kitty_shcherbatskaya", "url":"https://archiveofourown.org/works/7842493"},
  {"title":"The Improbability of Me and You", "author":"TheMoiralOfTheStory", "url":"https://archiveofourown.org/works/4383080#main"},
  {"title":"Lifeline", "author":"theartificem", "url":"https://archiveofourown.org/works/3170987"},
  {"title":"I hate Santa but I like you", "author":"Silver85", "url":"https://archiveofourown.org/works/5526746"},
  {"title":"On Our Last Leg", "author":"waitwhathuh", "url":"https://archiveofourown.org/works/8434864"},
  {"title":"Cunning Tongues", "author":"Sailoruuranus (magicalgirlshauna)", "url":"https://archiveofourown.org/works/3189251"},
  {"title":"The Girl With the Notebook", "author":"JenChaseTP", "url":"https://archiveofourown.org/works/8096260"},
  {"title":"Hands to Yourself", "author":"susieboo","url":"https://archiveofourown.org/works/6558040"},
  {"title":"behind the scenes", "author":"Kendarrr", "url":"https://archiveofourown.org/works/4237719"},
  {"title":"In-Flight Distractions", "author":"Muse92", "url":"https://archiveofourown.org/works/5215127"},
  {"title":"Oh Jealousy, You Got Me Now", "author":"fullfrontalnerdity", "url":"https://archiveofourown.org/works/2819219"},
  {"title":"they fell in love in their seventh year", "author":"ReedBalloon", "url":"https://archiveofourown.org/works/11211177"},
  {"title":"Darkness There, and Nothing More", "author":"Cap2theDark", "url":"https://archiveofourown.org/series/1169942"},
  {"title":"Helpless To The Bass And The Fading Light", "author":"thisaintascene", "url":"https://archiveofourown.org/works/5235410"},
  {"title":"Welcome to the Tour", "author":"iMightBe", "url":"https://archiveofourown.org/works/5932765"},
  {"title":"You Ain't Got To Be So Blind", "author":"onlythebestfandoms", "url":"https://archiveofourown.org/works/18990226"},
  {"title":"I'll Keep You Safe If You Keep Me Wild", "author":"TheRegalist", "url":"https://archiveofourown.org/works/3487961"}
]
