[
    "beginning01.gif",
    "beginning02.gif",
    "beginning03.gif",
    "beginning04.gif",
    "beginning05.gif",
    "beginning06.gif",
    "carmontop04.gif",
    "carmontop05.gif",
    "lauraontop01.gif",
    "lauraontop02.gif",
    "lauraontop03.gif",
    "lauraontop04.gif",
    "lauraontop05.gif",
    "lauraontop06.gif",
    "lauraontop07.gif",
    "lauraontop08.gif",
    "lauraontop09.gif",
    "legkiss01.gif",
    "legkiss02.gif",
    "nocorset01.gif",
    "nocorset02.gif",
    "nocorset03.gif",
    "sloleg01.gif",
    "sloleg02.gif",
    "sloleg03.gif",
    "sloleg04.gif",
    "sloleg05.gif",
    "slomo01.gif",
    "slomo02.gif",
    "slomo3.gif",
    "soletusbelate01.gif",
    "soletusbelate02.gif",
    "soletusbelate03.gif",
    "soletusbelate04.gif",
    "tease01.gif",
    "tease02.gif",
    "tease03.gif",
    "tease04.gif",
    "topless01.gif",
    "topless02.gif",
    "justsex/HER-THIGHS-TWITTER.gif",
    "justsex/HER-THIGHS.gif",
    "justsex/bite2.gif",
    "justsex/carm-hands.gif",
    "justsex/carm-hands2.gif",
    "justsex/carm-hands3.gif",
    "justsex/corset-twitter.gif",
    "justsex/earbite.gif",
    "justsex/earbite2.gif",
    "justsex/earbitetwitter.gif",
    "justsex/fortwitter2.gif",
    "justsex/grabwaist.gif",
    "justsex/grabwaist2.gif",
    "justsex/grabwaist3.gif",
    "justsex/grabwaist4.gif",
    "justsex/her-thighs2.gif",
    "justsex/her-thighs3.gif",
    "justsex/herthighs4.gif",
    "justsex/herthighstwitter.gif",
    "justsex/kiss.gif",
    "justsex/kiss2.gif",
    "justsex/kiss4.gif",
    "justsex/kiss5.gif",
    "justsex/rsex.gif",
    "justsex/rsex2.gif",
    "justsex/rsex3.gif",
    "justsex/rsex4.gif",
    "justsex/rsex5.gif",
    "justsex/rsextwitter.gif",
    "justsex/sex.gif",
    "justsex/sex10.gif",
    "justsex/sex11.gif",
    "justsex/sex12.gif",
    "justsex/sex13.gif",
    "justsex/sex14.gif",
    "justsex/sex15.gif",
    "justsex/sex16.gif",
    "justsex/sex17.gif",
    "justsex/sex18.gif",
    "justsex/sex19.gif",
    "justsex/sex2.gif",
    "justsex/sex20.gif",
    "justsex/sex21.gif",
    "justsex/sex22.gif",
    "justsex/sex23.gif",
    "justsex/sex24.gif",
    "justsex/sex25.gif",
    "justsex/sex26.gif",
    "justsex/sex27.gif",
    "justsex/sex28.gif",
    "justsex/sex29.gif",
    "justsex/sex3.gif",
    "justsex/sex30.gif",
    "justsex/sex31.gif",
    "justsex/sex32.gif",
    "justsex/sex33.gif",
    "justsex/sex34.gif",
    "justsex/sex35.gif",
    "justsex/sex36.gif",
    "justsex/sex37.gif",
    "justsex/sex38.gif",
    "justsex/sex39.gif",
    "justsex/sex4.gif",
    "justsex/sex40.gif",
    "justsex/sex41.gif",
    "justsex/sex42.gif",
    "justsex/sex43.gif",
    "justsex/sex44.gif",
    "justsex/sex45.gif",
    "justsex/sex46.gif",
    "justsex/sex47.gif",
    "justsex/sex48.gif",
    "justsex/sex49.gif",
    "justsex/sex5.gif",
    "justsex/sex50.gif",
    "justsex/sex51.gif",
    "justsex/sex52.gif",
    "justsex/sex53.gif",
    "justsex/sex54.gif",
    "justsex/sex55.gif",
    "justsex/sex56.gif",
    "justsex/sex6.gif",
    "justsex/sex7.gif",
    "justsex/sex8.gif",
    "justsex/sex9.gif",
    "justsex/sexkiss.gif",
    "justsex/sexkiss2.gif",
    "justsex/sexkiss3.gif",
    "justsex/sexkiss4.gif",
    "justsex/sexparallel.gif",
    "justsex/sexparellel2.gif",
    "justsex/slowkisstwitter.gif",
    "justsex/smilesex.gif",
    "justsex/smilesex2.gif",
    "justsex/smilesextwitter.gif",
    "justsex/taketurns.gif",
    "justsex/taketurns2.gif",
    "justsex/taketurns3.gif",
    "justsex/taketurns4.gif",
    "justsex/taketurnstwitter.gif",
    "justsex/toplesstwitter.gif",
    "justsex/twitterbite.gif",
    "justsex/yum.gif",
    "justsex/yumm2.gif",
    "justsex/yumm3.gif",
    "hollstein1.gif",
    "hollstein2.gif"
  ]
